module bitbucket.org/caphrim007-bitbucket/test

go 1.13

require (
	github.com/antlr/antlr4 v0.0.0-20201129091037-eafcc9369e99
	github.com/aws/aws-sdk-go v1.19.8
	github.com/caio/go-tdigest v2.3.0+incompatible // indirect
	github.com/go-kit/kit v0.8.0
	github.com/go-redis/redis/v8 v8.3.4
	github.com/golang/protobuf v1.4.2
	github.com/google/uuid v1.1.1
	github.com/klauspost/compress v1.9.8 // indirect
	github.com/leesper/go_rng v0.0.0-20190531154944-a612b043e353 // indirect
	github.com/pkg/errors v0.9.1
	github.com/prometheus/client_golang v1.1.0
	github.com/prometheus/client_model v0.2.0
	github.com/satori/go.uuid v1.2.0
	github.com/stretchr/testify v1.6.1
	github.com/wavefronthq/wavefront-sdk-go v0.9.3
	github.com/xdg/stringprep v1.0.1-0.20180714160509-73f8eece6fdc // indirect
	go.mongodb.org/mongo-driver v1.3.0
	golang.org/x/exp v0.0.0-20200821190819-94841d0725da // indirect
	golang.org/x/net v0.0.0-20201006153459-a7d1128ccaa0
	golang.org/x/oauth2 v0.0.0-20190604053449-0f29369cfe45
	gonum.org/v1/gonum v0.7.0 // indirect
	google.golang.org/appengine v1.6.5 // indirect
	gopkg.in/check.v1 v1.0.0-20190902080502-41f04d3bba15 // indirect
)
